{
  "port": 3000,
  "swagger": true,

  "db": {
    "url": "postgres://admin:admin@database/skeleton",
    "maxConnections": 10,
    "idleTimeout": 10000,
    "connectTimeout": 10000,
    "logging": false
  }
}
